[tomcat@chicago builds]$ du -sh FC96
14G	FC96
[tomcat@chicago Junkfolder]$ cd FC96
[tomcat@chicago FC96]$ du -sh *
7.1M	config
8.4G	fileserver
30M	logs
4.7G	src
4.0K	temp
[tomcat@chicago FC96]$ du -sh fileserver/temp src/temp
8.4G	fileserver/temp
3.4G	src/temp
[tomcat@chicago FC96]$ ls -tlh fileserver/temp | more
total 71M
drwxrwxr-x 2 tomcat tomcat 4.0K Apr 24 22:23 _1103977093
drwxrwxr-x 2 tomcat tomcat 4.0K Apr 24 22:13 _1902703514
drwxrwxr-x 2 tomcat tomcat 4.0K Apr 24 19:42 _1078208865
drwxrwxr-x 2 tomcat tomcat 4.0K Apr 24 19:41 _265900527
drwxrwxr-x 2 tomcat tomcat 4.0K Apr 24 19:40 _720150305
drwxrwxr-x 2 tomcat tomcat 4.0K Apr 24 19:40 _1043806127
drwxrwxr-x 2 tomcat tomcat 4.0K Apr 24 19:40 _261938538
drwxrwxr-x 2 tomcat tomcat 4.0K Apr 24 19:40 _1905703976
drwxrwxr-x 2 tomcat tomcat 4.0K Apr 24 19:14 _1123747801
drwxrwxr-x 2 tomcat tomcat 4.0K Apr 24 19:09 _397401134
drwxrwxr-x 2 tomcat tomcat 4.0K Apr 24 18:51 _23322183
drwxrwxr-x 2 tomcat tomcat 4.0K Apr 24 18:51 _1175247809
drwxrwxr-x 2 tomcat tomcat 4.0K Apr 24 18:47 _1069727616
drwxrwxr-x 2 tomcat tomcat 4.0K Apr 24 18:47 _1958259852
drwxrwxr-x 2 tomcat tomcat 4.0K Apr 24 18:23 _1751761497
drwxrwxr-x 2 tomcat tomcat 4.0K Apr 24 18:22 _904379102
drwxrwxr-x 2 tomcat tomcat 4.0K Apr 24 17:42 _822410601
drwxrwxr-x 2 tomcat tomcat 4.0K Apr 24 17:39 _1300490300
drwxrwxr-x 2 tomcat tomcat 4.0K Apr 24 17:38 _1231958001
drwxrwxr-x 2 tomcat tomcat 4.0K Apr 24 17:25 _1279660324
drwxrwxr-x 2 tomcat tomcat 4.0K Apr 24 17:25 _581583421
drwxrwxr-x 2 tomcat tomcat 4.0K Apr 24 17:21 _1821127683
drwxrwxr-x 2 tomcat tomcat 4.0K Apr 24 17:20 _1193900921
drwxrwxr-x 2 tomcat tomcat 4.0K Apr 24 17:06 _756281352
drwxrwxr-x 2 tomcat tomcat 4.0K Apr 24 17:06 _1353365158
drwxrwxr-x 2 tomcat tomcat 4.0K Apr 24 17:05 _1861437149
drwxrwxr-x 2 tomcat tomcat 4.0K Apr 24 17:04 _1661016962
drwxrwxr-x 2 tomcat tomcat 4.0K Apr 24 17:04 _1116459151
drwxrwxr-x 2 tomcat tomcat 4.0K Apr 24 16:32 _768854342
drwxrwxr-x 2 tomcat tomcat 4.0K Apr 24 16:16 _2109622208
drwxrwxr-x 2 tomcat tomcat 4.0K Apr 24 16:15 _682366472
drwxrwxr-x 2 tomcat tomcat 4.0K Apr 24 16:14 _1416166155
drwxrwxr-x 2 tomcat tomcat 4.0K Apr 24 16:07 _933027369
drwxrwxr-x 2 tomcat tomcat 4.0K Apr 24 16:00 _913493338
drwxrwxr-x 2 tomcat tomcat 4.0K Apr 24 15:53 _880723856
drwxrwxr-x 2 tomcat tomcat 4.0K Apr 24 15:45 _2132760900
drwxrwxr-x 2 tomcat tomcat 4.0K Apr 24 15:41 _1321776252
drwxrwxr-x 2 tomcat tomcat 4.0K Apr 24 15:37 _179242236
drwxrwxr-x 2 tomcat tomcat 4.0K Apr 24 15:32 _201067963
drwxrwxr-x 2 tomcat tomcat 4.0K Apr 24 15:30 _273443734
drwxrwxr-x 2 tomcat tomcat 4.0K Apr 24 15:29 _764507276
drwxrwxr-x 2 tomcat tomcat 4.0K Apr 24 15:27 _1673154628
drwxrwxr-x 2 tomcat tomcat 4.0K Apr 24 15:27 _1233885102
drwxrwxr-x 2 tomcat tomcat 4.0K Apr 24 15:23 _723671555
drwxrwxr-x 2 tomcat tomcat 4.0K Apr 24 15:16 _1002850009
drwxrwxr-x 2 tomcat tomcat 4.0K Apr 24 14:57 _1345813932
drwxrwxr-x 2 tomcat tomcat 4.0K Apr 24 14:46 _2002501643
drwxrwxr-x 2 tomcat tomcat 4.0K Apr 24 14:40 _1060037083
drwxrwxr-x 2 tomcat tomcat 4.0K Apr 24 14:31 _1774047254
drwxrwxr-x 2 tomcat tomcat 4.0K Apr 24 14:23 _919348032
drwxrwxr-x 2 tomcat tomcat 4.0K Apr 24 14:22 _979381877
drwxrwxr-x 2 tomcat tomcat 4.0K Apr 24 14:03 _1726868312
drwxrwxr-x 2 tomcat tomcat 4.0K Apr 24 14:02 _520609818
drwxrwxr-x 2 tomcat tomcat 4.0K Apr 24 14:02 _838852901
drwxrwxr-x 2 tomcat tomcat 4.0K Apr 24 13:34 _845366983
drwxrwxr-x 2 tomcat tomcat 4.0K Apr 24 13:30 _960097286
drwxrwxr-x 2 tomcat tomcat 4.0K Apr 24 13:28 _612705159
drwxrwxr-x 2 tomcat tomcat 4.0K Apr 24 13:25 _699893825
drwxrwxr-x 2 tomcat tomcat 4.0K Apr 24 13:24 _1053294722
drwxrwxr-x 2 tomcat tomcat 4.0K Apr 24 13:14 _529315764
drwxrwxr-x 2 tomcat tomcat 4.0K Apr 24 13:13 _1070791313
drwxrwxr-x 2 tomcat tomcat 4.0K Apr 24 13:12 _1688475190
drwxrwxr-x 2 tomcat tomcat 4.0K Apr 24 13:08 _1477533971
drwxrwxr-x 2 tomcat tomcat 4.0K Apr 24 13:03 _1347237577
drwxrwxr-x 2 tomcat tomcat 4.0K Apr 24 13:03 _2081549197
drwxrwxr-x 2 tomcat tomcat 4.0K Apr 24 12:59 _1282224080
drwxrwxr-x 2 tomcat tomcat 4.0K Apr 24 12:57 _109357721
drwxrwxr-x 2 tomcat tomcat 4.0K Apr 24 12:52 _215512550
drwxrwxr-x 2 tomcat tomcat 4.0K Apr 24 12:51 _289879895
drwxrwxr-x 2 tomcat tomcat 4.0K Apr 24 12:22 _1986088876
drwxrwxr-x 2 tomcat tomcat 4.0K Apr 24 12:03 _373921025
drwxrwxr-x 2 tomcat tomcat 4.0K Apr 24 11:50 _326360227
drwxrwxr-x 2 tomcat tomcat 4.0K Apr 24 11:49 _1018327826
drwxrwxr-x 2 tomcat tomcat 4.0K Apr 24 11:44 _546850905
drwxrwxr-x 2 tomcat tomcat 4.0K Apr 24 11:43 _1568246350
drwxrwxr-x 2 tomcat tomcat 4.0K Apr 24 11:43 _1511579319
drwxrwxr-x 2 tomcat tomcat 4.0K Apr 24 11:31 _1860613292
drwxrwxr-x 2 tomcat tomcat 4.0K Apr 24 11:30 _1679683287
drwxrwxr-x 2 tomcat tomcat 4.0K Apr 24 11:30 _675327948
drwxrwxr-x 2 tomcat tomcat 4.0K Apr 24 11:22 _912482192
drwxrwxr-x 2 tomcat tomcat 4.0K Apr 24 11:21 _1528685730
drwxrwxr-x 2 tomcat tomcat 4.0K Apr 24 11:20 _226269085
drwxrwxr-x 2 tomcat tomcat 4.0K Apr 24 11:20 _182072727
drwxrwxr-x 2 tomcat tomcat 4.0K Apr 24 11:13 _938909285
drwxrwxr-x 2 tomcat tomcat 4.0K Apr 24 11:07 _556413875
drwxrwxr-x 2 tomcat tomcat 4.0K Apr 24 11:07 _1559360746
drwxrwxr-x 2 tomcat tomcat 4.0K Apr 24 11:07 _1221446496
drwxrwxr-x 2 tomcat tomcat 4.0K Apr 24 10:52 _2086788120
drwxrwxr-x 2 tomcat tomcat 4.0K Apr 24 10:33 _1782778071
drwxrwxr-x 2 tomcat tomcat 4.0K Apr 24 10:28 _2083726511
drwxrwxr-x 2 tomcat tomcat 4.0K Apr 24 10:28 _1594424307
drwxrwxr-x 2 tomcat tomcat 4.0K Apr 24 10:26 _138686541
drwxrwxr-x 2 tomcat tomcat 4.0K Apr 24 10:23 _1155371821
drwxrwxr-x 2 tomcat tomcat 4.0K Apr 24 10:23 _258330753
drwxrwxr-x 2 tomcat tomcat 4.0K Apr 24 10:21 _1270403640
drwxrwxr-x 2 tomcat tomcat 4.0K Apr 24 10:17 _503108091
drwxrwxr-x 2 tomcat tomcat 4.0K Apr 24 10:15 _1380266849
drwxrwxr-x 2 tomcat tomcat 4.0K Apr 24 10:12 _505940754
drwxrwxr-x 2 tomcat tomcat 4.0K Apr 24 10:12 _1338641808
drwxrwxr-x 2 tomcat tomcat 4.0K Apr 24 10:11 _902901064
drwxrwxr-x 2 tomcat tomcat 4.0K Apr 24 10:11 _1833085593
drwxrwxr-x 2 tomcat tomcat 4.0K Apr 24 10:11 _899296393
drwxrwxr-x 2 tomcat tomcat 4.0K Apr 24 10:10 _567929305
drwxrwxr-x 2 tomcat tomcat 4.0K Apr 24 10:10 _1180818576
drwxrwxr-x 2 tomcat tomcat 4.0K Apr 24 10:09 _1484126446
drwxrwxr-x 2 tomcat tomcat 4.0K Apr 24 10:09 _587575381
drwxrwxr-x 2 tomcat tomcat 4.0K Apr 24 10:09 _1658990174
drwxrwxr-x 2 tomcat tomcat 4.0K Apr 24 10:01 _1992736371
drwxrwxr-x 2 tomcat tomcat 4.0K Apr 24 09:58 _480159735
drwxrwxr-x 2 tomcat tomcat 4.0K Apr 24 09:52 _714478121
drwxrwxr-x 2 tomcat tomcat 4.0K Apr 24 09:52 _1529532595
drwxrwxr-x 2 tomcat tomcat 4.0K Apr 24 09:51 _899960305
drwxrwxr-x 2 tomcat tomcat 4.0K Apr 24 09:51 _19286310
drwxrwxr-x 2 tomcat tomcat 4.0K Apr 24 09:51 _128159897
drwxrwxr-x 2 tomcat tomcat 4.0K Apr 24 09:48 _1767481702
drwxrwxr-x 2 tomcat tomcat 4.0K Apr 24 09:47 _1982423271
drwxrwxr-x 2 tomcat tomcat 4.0K Apr 24 09:46 _1342138667
drwxrwxr-x 2 tomcat tomcat 4.0K Apr 24 09:46 _215733243
drwxrwxr-x 2 tomcat tomcat 4.0K Apr 24 09:46 _120157663
drwxrwxr-x 2 tomcat tomcat 4.0K Apr 24 09:46 _591475732
drwxrwxr-x 2 tomcat tomcat 4.0K Apr 24 09:45 _1674834052
drwxrwxr-x 2 tomcat tomcat 4.0K Apr 24 09:45 _1427550363
drwxrwxr-x 2 tomcat tomcat 4.0K Apr 24 09:44 _2140454741
drwxrwxr-x 2 tomcat tomcat 4.0K Apr 24 09:44 _1580384557
drwxrwxr-x 2 tomcat tomcat 4.0K Apr 24 09:44 _1517312943
drwxrwxr-x 2 tomcat tomcat 4.0K Apr 24 09:44 _362301211
drwxrwxr-x 2 tomcat tomcat 4.0K Apr 24 09:44 _1401218295
drwxrwxr-x 2 tomcat tomcat 4.0K Apr 24 09:44 _1828049230
drwxrwxr-x 2 tomcat tomcat 4.0K Apr 24 09:43 _2091023152
drwxrwxr-x 2 tomcat tomcat 4.0K Apr 24 09:43 _1322052805
drwxrwxr-x 2 tomcat tomcat 4.0K Apr 24 09:42 _2019027412
drwxrwxr-x 2 tomcat tomcat 4.0K Apr 24 09:42 _2130542456
drwxrwxr-x 2 tomcat tomcat 4.0K Apr 24 09:41 _409123311
drwxrwxr-x 2 tomcat tomcat 4.0K Apr 24 09:40 _48957256
drwxrwxr-x 2 tomcat tomcat 4.0K Apr 24 09:38 _733223963
drwxrwxr-x 2 tomcat tomcat 4.0K Apr 24 09:37 _489440388
drwxrwxr-x 2 tomcat tomcat 4.0K Apr 24 09:34 _1604775464
drwxrwxr-x 2 tomcat tomcat 4.0K Apr 24 09:31 _534260517
drwxrwxr-x 2 tomcat tomcat 4.0K Apr 24 09:26 _882126555
drwxrwxr-x 2 tomcat tomcat 4.0K Apr 24 09:26 _1164380605
drwxrwxr-x 2 tomcat tomcat 4.0K Apr 24 09:25 _113294328
drwxrwxr-x 2 tomcat tomcat 4.0K Apr 24 09:19 _1119026085

[tomcat@chicago FC96]$ ls -tlh fileserver/temp/_1338641808
total 56K
-rw-rw-r-- 1 tomcat tomcat  12K Apr 24 10:12 2017042409125613852_image002.png
-rw-rw-r-- 1 tomcat tomcat  10K Apr 24 10:12 2017042409125613853_image003.jpg
-rw-rw-r-- 1 tomcat tomcat  13K Apr 24 10:12 2017042409125613851_4057 O#1011 Estimate for May 3 2017.xlsx
-rw-rw-r-- 1 tomcat tomcat 8.2K Apr 24 10:12 201704240912561385.html
-rw-rw-r-- 1 tomcat tomcat 2.5K Apr 24 10:12 201704240912561385.xml
[tomcat@chicago FC96]$ ls -tlh fileserver/temp/_587575381
total 24K
-rw-rw-r-- 1 tomcat tomcat  10K Apr 24 10:09 2017042409095911061_image001.jpg
-rw-rw-r-- 1 tomcat tomcat 5.0K Apr 24 10:09 201704240909591106.html
-rw-rw-r-- 1 tomcat tomcat 2.8K Apr 24 10:09 201704240909591106.xml
[tomcat@chicago FC96]$ ls -tlh fileserver/temp/_120157663
total 1.4M
-rw-rw-r-- 1 tomcat tomcat 607K Apr 24 09:46 2017042408464316864_Indianapolis, IN 236 Ciresi.pdf
-rw-rw-r-- 1 tomcat tomcat 600K Apr 24 09:46 2017042408464316863_Indianapolis, IN 215 Ciresi.pdf
-rw-rw-r-- 1 tomcat tomcat  60K Apr 24 09:46 2017042408464316862_240501-Ciresi-236(2).xls
-rw-rw-r-- 1 tomcat tomcat  60K Apr 24 09:46 2017042408464316861_240301-Ciresi-215(1).xls
-rw-rw-r-- 1 tomcat tomcat  15K Apr 24 09:46 201704240846431686.html
-rw-rw-r-- 1 tomcat tomcat 3.0K Apr 24 09:46 201704240846431686.xml
[tomcat@chicago FC96]$ ls -tlh fileserver/temp/_1322052805
total 8.0K
-rw-rw-r-- 1 tomcat tomcat 2.9K Apr 24 09:43 201704240843291260.html
-rw-rw-r-- 1 tomcat tomcat  948 Apr 24 09:43 201704240843291260.xml
[tomcat@chicago FC96]$ ls -tlh fileserver/temp/_1604775464
total 96K
-rw-rw-r-- 1 tomcat tomcat  57K Apr 24 09:34 2017042408345414622_RegReceipt-L7V5N8EK-20128-93214.pdf
-rw-rw-r-- 1 tomcat tomcat  689 Apr 24 09:34 2017042408345414623_image002.jpg
-rw-rw-r-- 1 tomcat tomcat 3.0K Apr 24 09:34 2017042408345414621_image001.png
-rw-rw-r-- 1 tomcat tomcat  20K Apr 24 09:34 201704240834541462.html
-rw-rw-r-- 1 tomcat tomcat 5.6K Apr 24 09:34 201704240834541462.xml
[tomcat@chicago FC96]$ ls -tlh fileserver/temp/_113294328
total 20K
-rw-rw-r-- 1 tomcat tomcat 3.0K Apr 24 09:25 2017042408262511041_image001.png
-rw-rw-r-- 1 tomcat tomcat  11K Apr 24 09:25 201704240826251104.html
-rw-rw-r-- 1 tomcat tomcat 2.2K Apr 24 09:25 201704240826251104.xml
[tomcat@chicago FC96]$ ls -lth src/temp | more
total 2.6G
-rw-rw-r--  1 tomcat tomcat  8.4K Apr 25 01:53 01493099587478.png
-rw-rw-r--  1 tomcat tomcat  8.0K Apr 25 01:53 21493099586726.png
-rw-rw-r--  1 tomcat tomcat  8.4K Apr 25 01:53 01493099584710.png
-rw-rw-r--  1 tomcat tomcat  8.0K Apr 25 01:53 11493099583071.png
-rw-rw-r--  1 tomcat tomcat  8.4K Apr 25 01:50 01493099415248.png
-rw-rw-r--  1 tomcat tomcat  8.0K Apr 25 01:50 01493099410976.png
-rw-rw-r--  1 tomcat tomcat  3.3K Apr 24 22:23 17711493087020343.png
-rw-rw-r--  1 tomcat tomcat  3.4K Apr 24 22:23 17701493087020281.png
-rw-rw-r--  1 tomcat tomcat  7.0K Apr 24 22:23 17691493087016615.png
-rw-rw-r--  1 tomcat tomcat  2.8K Apr 24 22:23 17681493087016565.png
-rw-rw-r--  1 tomcat tomcat  9.7K Apr 24 22:23 17671493087016303_PDF.png
-rw-rw-r--  1 tomcat tomcat   10K Apr 24 22:23 17671493087016303.png
-rw-rw-r--  1 tomcat tomcat   11K Apr 24 22:23 17661493087016267.png
-rw-rw-r--  1 tomcat tomcat  7.7K Apr 24 22:23 17651493087016218.png
-rw-rw-r--  1 tomcat tomcat  5.2K Apr 24 22:23 17641493087016157.png
-rw-rw-r--  1 tomcat tomcat  4.0K Apr 24 22:23 17631493087015928.png
-rw-rw-r--  1 tomcat tomcat  3.5K Apr 24 22:23 17621493087015885.png
-rw-rw-r--  1 tomcat tomcat  7.1K Apr 24 22:23 17611493087015797.png
-rw-rw-r--  1 tomcat tomcat  5.5K Apr 24 22:23 17601493087015744.png
-rw-rw-r--  1 tomcat tomcat  6.1K Apr 24 22:23 17591493087015608_PDF.png
-rw-rw-r--  1 tomcat tomcat  6.6K Apr 24 22:23 17591493087015608.png
-rw-rw-r--  1 tomcat tomcat  3.3K Apr 24 22:22 17581493086967953.png
-rw-rw-r--  1 tomcat tomcat  3.4K Apr 24 22:22 17571493086966857.png
-rw-rw-r--  1 tomcat tomcat  4.5K Apr 24 20:12 17551493079166373.png
-rw-rw-r--  1 tomcat tomcat  4.5K Apr 24 20:12 17531493079166201.png
-rw-rw-r--  1 tomcat tomcat  4.5K Apr 24 20:12 17531493079166187.png
-rw-rw-r--  1 tomcat tomcat  4.5K Apr 24 20:12 17531493079166172.png
-rw-rw-r--  1 tomcat tomcat  4.5K Apr 24 20:12 17511493079166055.png
-rw-rw-r--  1 tomcat tomcat  4.5K Apr 24 20:12 17511493079166001.png
-rw-rw-r--  1 tomcat tomcat  4.5K Apr 24 20:12 17501493079163781.png
-rw-rw-r--  1 tomcat tomcat  4.5K Apr 24 19:45 17421493077503306.png
-rw-rw-r--  1 tomcat tomcat  4.5K Apr 24 19:45 17421493077503303.png
-rw-rw-r--  1 tomcat tomcat  4.5K Apr 24 19:45 17421493077503302.png
-rw-rw-r--  1 tomcat tomcat  4.5K Apr 24 19:45 17421493077503291.png
-rw-rw-r--  1 tomcat tomcat  4.5K Apr 24 19:45 17421493077503289.png
-rw-rw-r--  1 tomcat tomcat  4.5K Apr 24 19:45 17411493077500673.png
-rw-rw-r--  1 tomcat tomcat  1.4K Apr 24 19:39 LessionContent_872930795.html
-rw-rw-r--  1 tomcat tomcat  3.8M Apr 24 19:36 BBQ_Turkey_Salad_969965216.zip
-rw-rw-r--  1 tomcat tomcat  4.2M Apr 24 19:35 BBQ_Chicken_Salad_335135751.zip
-rw-rw-r--  1 tomcat tomcat  4.6K Apr 24 19:34 17361493076878673.png
-rw-rw-r--  1 tomcat tomcat  4.6K Apr 24 19:34 17361493076878672.png
-rw-rw-r--  1 tomcat tomcat  4.6K Apr 24 19:34 17361493076878667.png
-rw-rw-r--  1 tomcat tomcat  4.6K Apr 24 19:34 17361493076878675.png
-rw-rw-r--  1 tomcat tomcat  4.6K Apr 24 19:34 17361493076878665.png
-rw-rw-r--  1 tomcat tomcat  4.6K Apr 24 19:34 17351493076876515.png
-rw-rw-r--  1 tomcat tomcat  4.0M Apr 24 19:33 Balsamic_Chicken_Salad_1378139392.zip
-rw-rw-r--  1 tomcat tomcat  3.5M Apr 24 19:33 Cap_s_Chopped_Salad_1667480409.zip
-rw-rw-r--  1 tomcat tomcat  3.7M Apr 24 19:31 Black___Bleu_Salad_1312722142.zip
-rw-rw-r--  1 tomcat tomcat  4.2M Apr 24 19:31 Kids_Grilled_Cheese_1343402298.zip
-rw-rw-r--  1 tomcat tomcat  1.4K Apr 24 19:30 LessionContent_1020466523.html
-rw-rw-r--  1 tomcat tomcat  4.5M Apr 24 19:29 Kids_Turkey_Sandwich_12_14_16_1516662679.zip
-rw-rw-r--  1 tomcat tomcat  4.5M Apr 24 19:28 Kids_Ham___Cheese_Sandwich_414160296.zip
-rw-rw-r--  1 tomcat tomcat  2.9M Apr 24 19:28 Turkey_Sandwich_1781430161.zip
-rw-rw-r--  1 tomcat tomcat  3.0M Apr 24 19:27 Tuna_Sandwich_1041003441.zip
-rw-rw-r--  1 tomcat tomcat  3.0M Apr 24 19:27 Roast_Beef_Sandwich_12_14_16_510968264.zip
-rw-rw-r--  1 tomcat tomcat  3.0M Apr 24 19:27 Ham___Cheese_Sandwich_217199268.zip
-rw-rw-r--  1 tomcat tomcat  1.4K Apr 24 19:27 LessionContent_1673744703.html
-rw-rw-r--  1 tomcat tomcat  2.9M Apr 24 19:24 Cran-Slam_Club_237238766.zip
-rw-rw-r--  1 tomcat tomcat  1.3K Apr 24 19:23 LessionContent_1703195473.html
-rw-rw-r--  1 tomcat tomcat  3.2M Apr 24 19:19 Veggie_Turkey_1673221112.zip
-rw-rw-r--  1 tomcat tomcat  3.6M Apr 24 19:19 Tuna_Sub_441231634.zip
-rw-rw-r--  1 tomcat tomcat  3.6M Apr 24 19:19 Homemade_Turkey_1792082400.zip
-rw-rw-r--  1 tomcat tomcat  3.6M Apr 24 19:19 Italian_12_14_16a_1407048191.zip
-rw-rw-r--  1 tomcat tomcat  3.6M Apr 24 19:18 Ham___Cheese_1140955710.zip
-rw-rw-r--  1 tomcat tomcat  3.1M Apr 24 19:18 Cheese_Sub_48428223.zip
-rw-rw-r--  1 tomcat tomcat  1.3K Apr 24 19:17 LessionContent_350770435.html
-rw-rw-r--  1 tomcat tomcat  2.1M Apr 24 19:13 Protien_Prep_-_Roast_Beef_1662640585.zip
-rw-rw-r--  1 tomcat tomcat  1.3K Apr 24 19:09 LessionContent_1135289875.html
-rw-rw-r--  1 tomcat tomcat  2.2M Apr 24 19:07 Protien_Prep_-_Meatballs_118318816.zip
-rw-rw-r--  1 tomcat tomcat  4.5K Apr 24 19:05 17311493075123083.png
-rw-rw-r--  1 tomcat tomcat  4.5K Apr 24 19:05 17311493075123074.png
-rw-rw-r--  1 tomcat tomcat  4.5K Apr 24 19:05 17311493075123028.png
-rw-rw-r--  1 tomcat tomcat  4.5K Apr 24 19:05 17291493075122236.png
-rw-rw-r--  1 tomcat tomcat  4.5K Apr 24 19:05 17281493075122217.png
-rw-rw-r--  1 tomcat tomcat  4.5K Apr 24 19:05 17281493075122192.png
-rw-rw-r--  1 tomcat tomcat  4.5K Apr 24 19:05 17271493075117977.png
-rw-rw-r--  1 tomcat tomcat   10M Apr 24 19:03 Cold_Track_1_1378874235.zip
-rw-rw-r--  1 tomcat tomcat   652 Apr 24 19:03 LessionContent_1352049062.html
-rw-rw-r--  1 tomcat tomcat  4.8M Apr 24 19:01 How_to_Clean_the_Grill_1099846320.zip
-rw-rw-r--  1 tomcat tomcat  8.1K Apr 24 18:57 17261493074624255.png
-rw-rw-r--  1 tomcat tomcat  7.6K Apr 24 18:57 17251493074623814.png
-rw-rw-r--  1 tomcat tomcat  5.2K Apr 24 18:57 17241493074623481.png
-rw-rw-r--  1 tomcat tomcat  9.9K Apr 24 18:57 17231493074623099_PDF.png
-rw-rw-r--  1 tomcat tomcat   11K Apr 24 18:57 17231493074623099.png
-rw-rw-r--  1 tomcat tomcat  9.7K Apr 24 18:57 17221493074622827_PDF.png
-rw-rw-r--  1 tomcat tomcat   11K Apr 24 18:57 17221493074622827.png
-rw-rw-r--  1 tomcat tomcat   618 Apr 24 18:56 LessionContent_576806199.html
drwxrwxr-x  2 tomcat tomcat   20K Apr 24 18:56 UFOC_DOWNLOAD
-rw-rw-r--  1 tomcat tomcat  1.6K Apr 24 18:56 LessionContent_667712659.html
-rw-rw-r--  1 tomcat tomcat  1.5K Apr 24 18:56 LessionContent_1478186260.html
-rw-rw-r--  1 tomcat tomcat  1.6K Apr 24 18:55 LessionContent_1651981331.html
-rw-rw-r--  1 tomcat tomcat  3.0K Apr 24 18:54 LessionContent_1253149634.html
-rw-rw-r--  1 tomcat tomcat  3.3K Apr 24 18:54 LessionContent_383188877.html
-rw-rw-r--  1 tomcat tomcat   618 Apr 24 18:52 LessionContent_1168398190.html
-rw-rw-r--  1 tomcat tomcat   37K Apr 24 18:52 Deb_Kurdts_Play_Btn_2022426520.jpg
-rw-rw-r--  1 tomcat tomcat  123K Apr 24 18:52 Deb_Kurdts_High_1352978073_968975336.jpg
-rw-rw-r--  1 tomcat tomcat   45K Apr 24 18:52 Muse_Play_Btn_241063393.jpg
-rw-rw-r--  1 tomcat tomcat   54K Apr 24 18:52 acceptance_speech_image001_1436889701.jpg
-rw-rw-r--  1 tomcat tomcat  2.5M Apr 24 18:50 reCAPture_-_Capriotti_s_Service_Recovery_Philosophy_1851658766.zip
-rw-rw-r--  1 tomcat tomcat  4.7K Apr 24 18:50 17211493074228584.png
-rw-rw-r--  1 tomcat tomcat  4.7K Apr 24 18:50 17161493074228324.png
-rw-rw-r--  1 tomcat tomcat  4.7K Apr 24 18:50 17161493074228160.png
-rw-rw-r--  1 tomcat tomcat  4.7K Apr 24 18:50 17161493074228157.png
-rw-rw-r--  1 tomcat tomcat  4.7K Apr 24 18:50 17161493074228155.png
-rw-rw-r--  1 tomcat tomcat  4.7K Apr 24 18:50 17161493074228150.png
-rw-rw-r--  1 tomcat tomcat  4.7K Apr 24 18:50 17151493074226434.png
-rw-rw-r--  1 tomcat tomcat  2.1M Apr 24 18:49 CAPtivating_Service_1937211617.zip
-rw-rw-r--  1 tomcat tomcat  1.7M Apr 24 18:49 Intro_to_Franchising_21717325.zip
-rw-rw-r--  1 tomcat tomcat   618 Apr 24 18:45 LessionContent_1163859509.html
-rw-rw-r--  1 tomcat tomcat  4.5K Apr 24 18:42 17091493073754669.png
-rw-rw-r--  1 tomcat tomcat  4.5K Apr 24 18:42 17091493073754668.png
-rw-rw-r--  1 tomcat tomcat  4.5K Apr 24 18:42 17091493073754671.png
-rw-rw-r--  1 tomcat tomcat  4.5K Apr 24 18:42 17091493073754666.png
-rw-rw-r--  1 tomcat tomcat  4.5K Apr 24 18:42 17091493073754662.png
-rw-rw-r--  1 tomcat tomcat  4.5K Apr 24 18:42 17091493073754663.png
-rw-rw-r--  1 tomcat tomcat  4.5K Apr 24 18:42 17081493073753294.png
-rw-rw-r--  1 tomcat tomcat  3.1M Apr 24 18:42 CAPS_Basics_-_Our_History_and_Misison_1342377574.zip
-rw-rw-r--  1 tomcat tomcat  2.6M Apr 24 18:33 Protien_Prep_-_Turkey_628820607.zip
-rw-rw-r--  1 tomcat tomcat  4.6K Apr 24 18:27 17021493072856500.png
-rw-rw-r--  1 tomcat tomcat  4.6K Apr 24 18:27 17021493072856498.png
-rw-rw-r--  1 tomcat tomcat  4.6K Apr 24 18:27 17021493072856496.png
-rw-rw-r--  1 tomcat tomcat  4.6K Apr 24 18:27 17021493072856493.png
-rw-rw-r--  1 tomcat tomcat  4.6K Apr 24 18:27 17021493072856492.png
-rw-rw-r--  1 tomcat tomcat  4.6K Apr 24 18:27 17011493072855807.png
-rw-rw-r--  1 tomcat tomcat  4.6K Apr 24 18:27 16961493072842701.png
-rw-rw-r--  1 tomcat tomcat  4.6K Apr 24 18:27 16951493072842561.png
-rw-rw-r--  1 tomcat tomcat  4.6K Apr 24 18:27 16951493072842557.png
-rw-rw-r--  1 tomcat tomcat  4.6K Apr 24 18:27 16951493072842555.png
-rw-rw-r--  1 tomcat tomcat  4.6K Apr 24 18:27 16951493072842554.png
-rw-rw-r--  1 tomcat tomcat  4.6K Apr 24 18:27 16951493072842549.png
-rw-rw-r--  1 tomcat tomcat  4.6K Apr 24 18:27 16941493072841990.png
-rw-rw-r--  1 tomcat tomcat  7.7M Apr 24 18:24 HACCP__1a_-_What_is_HACCP,_Hygiene_and_Sanitation_2_6_224716651.zip
-rw-rw-r--  1 tomcat tomcat  4.5K Apr 24 18:23 16881493072588810.png
-rw-rw-r--  1 tomcat tomcat  4.5K Apr 24 18:23 16881493072588806.png
-rw-rw-r--  1 tomcat tomcat  4.5K Apr 24 18:23 16881493072588798.png
-rw-rw-r--  1 tomcat tomcat  4.5K Apr 24 18:23 16881493072588797.png
-rw-rw-r--  1 tomcat tomcat  4.5K Apr 24 18:23 16881493072588793.png
-rw-rw-r--  1 tomcat tomcat  4.5K Apr 24 18:23 16871493072587967.png
-rw-rw-r--  1 tomcat tomcat  4.6K Apr 24 18:16 16811493072211804.png
-rw-rw-r--  1 tomcat tomcat  4.6K Apr 24 18:16 16811493072211802.png
-rw-rw-r--  1 tomcat tomcat  4.6K Apr 24 18:16 16811493072211795.png
-rw-rw-r--  1 tomcat tomcat  4.6K Apr 24 18:16 16811493072211791.png
-rw-rw-r--  1 tomcat tomcat  4.6K Apr 24 18:16 16811493072211789.png
-rw-rw-r--  1 tomcat tomcat  4.6K Apr 24 18:16 16811493072211646.png
-rw-rw-r--  1 tomcat tomcat  4.6K Apr 24 18:16 16801493072209801.png
-rw-rw-r--  1 tomcat tomcat  4.6K Apr 24 18:13 16741493072017167.png
-rw-rw-r--  1 tomcat tomcat  4.6K Apr 24 18:13 16741493072017161.png
-rw-rw-r--  1 tomcat tomcat  4.6K Apr 24 18:13 16741493072017156.png
-rw-rw-r--  1 tomcat tomcat  4.6K Apr 24 18:13 16741493072017154.png
-rw-rw-r--  1 tomcat tomcat  4.6K Apr 24 18:13 16741493072017153.png
-rw-rw-r--  1 tomcat tomcat  4.6K Apr 24 18:13 16731493072016619.png
-rw-rw-r--  1 tomcat tomcat  4.5K Apr 24 18:11 16721493071916868.png
-rw-rw-r--  1 tomcat tomcat  4.3K Apr 24 18:11 16661493071884381.png
-rw-rw-r--  1 tomcat tomcat  4.3K Apr 24 18:11 16661493071884307.png
-rw-rw-r--  1 tomcat tomcat  4.3K Apr 24 18:11 16661493071884304.png
-rw-rw-r--  1 tomcat tomcat  4.3K Apr 24 18:11 16661493071884303.png
-rw-rw-r--  1 tomcat tomcat  4.3K Apr 24 18:11 16661493071884301.png
-rw-rw-r--  1 tomcat tomcat  4.3K Apr 24 18:11 16661493071884299.png
-rw-rw-r--  1 tomcat tomcat  4.3K Apr 24 18:11 16651493071883732.png
-rw-rw-r--  1 tomcat tomcat  4.5K Apr 24 18:11 16641493071876910.png
-rw-rw-r--  1 tomcat tomcat  4.5K Apr 24 18:11 16611493071874773.png
-rw-rw-r--  1 tomcat tomcat  4.5K Apr 24 18:11 16611493071874768.png
-rw-rw-r--  1 tomcat tomcat  4.5K Apr 24 18:11 16611493071874762.png
-rw-rw-r--  1 tomcat tomcat  4.5K Apr 24 18:11 16601493071872534.png
-rw-rw-r--  1 tomcat tomcat  4.5K Apr 24 18:09 16541493071767538.png
-rw-rw-r--  1 tomcat tomcat  4.5K Apr 24 18:09 16541493071767540.png
-rw-rw-r--  1 tomcat tomcat  4.5K Apr 24 18:09 16541493071767536.png
-rw-rw-r--  1 tomcat tomcat  4.5K Apr 24 18:09 16541493071767533.png
-rw-rw-r--  1 tomcat tomcat  4.5K Apr 24 18:09 16531493071766936.png


